^C:\PROGRAMMINGPROJECTS\HOFFMAN'S CLASSES\RACEANALYZER\RACEANALYZER\DEBUG\MAIN.OBJ|C:\PROGRAMMINGPROJECTS\HOFFMAN'S CLASSES\RACEANALYZER\RACEANALYZER\DEBUG\MAINDISPLAY.OBJ|C:\PROGRAMMINGPROJECTS\HOFFMAN'S CLASSES\RACEANALYZER\RACEANALYZER\DEBUG\RACEANALYZER.EXE.EMBED.MANIFEST.RES|C:\PROGRAMMINGPROJECTS\HOFFMAN'S CLASSES\RACEANALYZER\RACEANALYZER\DEBUG\RACEANALYZER.OBJ|C:\PROGRAMMINGPROJECTS\HOFFMAN'S CLASSES\RACEANALYZER\RACEANALYZER\DEBUG\RESULTS.OBJ|C:\PROGRAMMINGPROJECTS\HOFFMAN'S CLASSES\RACEANALYZER\RACEANALYZER\DEBUG\RIDER.OBJ|C:\PROGRAMMINGPROJECTS\HOFFMAN'S CLASSES\RACEANALYZER\RACEANALYZER\DEBUG\STAGE.OBJ|C:\PROGRAMMINGPROJECTS\HOFFMAN'S CLASSES\RACEANALYZER\RACEANALYZER\DEBUG\TIMESTAGECALC.OBJ
C:\PROGRAMMINGPROJECTS\HOFFMAN'S CLASSES\RACEANALYZER\DEBUG\RACEANALYZER.ILK
C:\PROGRAMMINGPROJECTS\HOFFMAN'S CLASSES\RACEANALYZER\DEBUG\RACEANALYZER.EXE
C:\PROGRAMMINGPROJECTS\HOFFMAN'S CLASSES\RACEANALYZER\RACEANALYZER\DEBUG\RACEANALYZER.EXE.INTERMEDIATE.MANIFEST
C:\PROGRAMMINGPROJECTS\HOFFMAN'S CLASSES\RACEANALYZER\DEBUG\RACEANALYZER.PDB
